﻿  stdafx.cpp
  ConsoleApplication1FicheroPersonas.cpp
  ConsoleApplication1FicheroPersonas.vcxproj -> C:\Users\DAM\Documents\work\acceso-datos\C-programs\ConsoleApplication1FicheroPersonas\Debug\ConsoleApplication1FicheroPersonas.exe
  ConsoleApplication1FicheroPersonas.vcxproj -> C:\Users\DAM\Documents\work\acceso-datos\C-programs\ConsoleApplication1FicheroPersonas\Debug\ConsoleApplication1FicheroPersonas.pdb (Full PDB)
