^C:\USERS\DAM\DOCUMENTS\WORK\ACCESO-DATOS\C-PROGRAMS\CONSOLEAPPLICATION1FICHEROPERSONAS\CONSOLEAPPLICATION1FICHEROPERSONAS\STDAFX.CPP
/c /ZI /nologo /W3 /WX- /sdl /Od /Oy- /D _CRT_SECURE_NO_WARNINGS /Gm /EHsc /RTC1 /MDd /GS /fp:precise /Zc:wchar_t /Zc:forScope /Zc:inline /Yc"stdafx.h" /Fp"DEBUG\CONSOLEAPPLICATION1FICHEROPERSONAS.PCH" /Fo"DEBUG\\" /Fd"DEBUG\VC140.PDB" /Gd /TP /analyze- C:\USERS\DAM\DOCUMENTS\WORK\ACCESO-DATOS\C-PROGRAMS\CONSOLEAPPLICATION1FICHEROPERSONAS\CONSOLEAPPLICATION1FICHEROPERSONAS\STDAFX.CPP
^C:\USERS\DAM\DOCUMENTS\WORK\ACCESO-DATOS\C-PROGRAMS\CONSOLEAPPLICATION1FICHEROPERSONAS\CONSOLEAPPLICATION1FICHEROPERSONAS\CONSOLEAPPLICATION1FICHEROPERSONAS.CPP
/c /ZI /nologo /W3 /WX- /sdl /Od /Oy- /D _CRT_SECURE_NO_WARNINGS /Gm /EHsc /RTC1 /MDd /GS /fp:precise /Zc:wchar_t /Zc:forScope /Zc:inline /Yu"stdafx.h" /Fp"DEBUG\CONSOLEAPPLICATION1FICHEROPERSONAS.PCH" /Fo"DEBUG\\" /Fd"DEBUG\VC140.PDB" /Gd /TP /analyze- C:\USERS\DAM\DOCUMENTS\WORK\ACCESO-DATOS\C-PROGRAMS\CONSOLEAPPLICATION1FICHEROPERSONAS\CONSOLEAPPLICATION1FICHEROPERSONAS\CONSOLEAPPLICATION1FICHEROPERSONAS.CPP
