^C:\USERS\DAM\DOCUMENTS\WORK\ACCESO-DATOS\C-PROGRAMS\CONSOLEAPPLICATION1FICHEROPERSONAS\CONSOLEAPPLICATION1FICHEROPERSONAS\DEBUG\CONSOLEAPPLICATION1FICHEROPERSONAS.OBJ|C:\USERS\DAM\DOCUMENTS\WORK\ACCESO-DATOS\C-PROGRAMS\CONSOLEAPPLICATION1FICHEROPERSONAS\CONSOLEAPPLICATION1FICHEROPERSONAS\DEBUG\STDAFX.OBJ
C:\USERS\DAM\DOCUMENTS\WORK\ACCESO-DATOS\C-PROGRAMS\CONSOLEAPPLICATION1FICHEROPERSONAS\DEBUG\CONSOLEAPPLICATION1FICHEROPERSONAS.ILK
C:\USERS\DAM\DOCUMENTS\WORK\ACCESO-DATOS\C-PROGRAMS\CONSOLEAPPLICATION1FICHEROPERSONAS\DEBUG\CONSOLEAPPLICATION1FICHEROPERSONAS.EXE
C:\USERS\DAM\DOCUMENTS\WORK\ACCESO-DATOS\C-PROGRAMS\CONSOLEAPPLICATION1FICHEROPERSONAS\DEBUG\CONSOLEAPPLICATION1FICHEROPERSONAS.PDB
